lab5/simulation/qsim/lab_5_alu.msim.vcd
$comment
	File created using the following command:
		vcd file lab_5_alu.msim.vcd -direction
$end
$date
	Tue Sep 03 16:24:24 2019
$end
$version
	ModelSim Version 10.1d
$end
$timescale
	1ps
$end
$scope module ALU32_vlg_vec_tst $end
$var reg 32 ! A [31:0] $end
$var reg 32 " B [31:0] $end
$var reg 4 # Sel [3:0] $end
$var wire 1 $ Y [31] $end
$var wire 1 % Y [30] $end
$var wire 1 & Y [29] $end
$var wire 1 ' Y [28] $end
$var wire 1 ( Y [27] $end
$var wire 1 ) Y [26] $end
$var wire 1 * Y [25] $end
$var wire 1 + Y [24] $end
$var wire 1 , Y [23] $end
$var wire 1 - Y [22] $end
$var wire 1 . Y [21] $end
$var wire 1 / Y [20] $end
$var wire 1 0 Y [19] $end
$var wire 1 1 Y [18] $end
$var wire 1 2 Y [17] $end
$var wire 1 3 Y [16] $end
$var wire 1 4 Y [15] $end
$var wire 1 5 Y [14] $end
$var wire 1 6 Y [13] $end
$var wire 1 7 Y [12] $end
$var wire 1 8 Y [11] $end
$var wire 1 9 Y [10] $end
$var wire 1 : Y [9] $end
$var wire 1 ; Y [8] $end
$var wire 1 < Y [7] $end
$var wire 1 = Y [6] $end
$var wire 1 > Y [5] $end
$var wire 1 ? Y [4] $end
$var wire 1 @ Y [3] $end
$var wire 1 A Y [2] $end
$var wire 1 B Y [1] $end
$var wire 1 C Y [0] $end
$var wire 1 D sampler $end
$scope module i1 $end
$var wire 1 E gnd $end
$var wire 1 F vcc $end
$var wire 1 G unknown $end
$var tri1 1 H devclrn $end
$var tri1 1 I devpor $end
$var tri1 1 J devoe $end
$var wire 1 K Add0~26_combout $end
$var wire 1 L Add0~30_combout $end
$var wire 1 M Add0~42_combout $end
$var wire 1 N Add0~46_combout $end
$var wire 1 O Add0~58_combout $end
$var wire 1 P Add0~82_combout $end
$var wire 1 Q Add0~94_combout $end
$var wire 1 R Add0~102_combout $end
$var wire 1 S Add0~110_combout $end
$var wire 1 T Add0~127 $end
$var wire 1 U Add0~130_combout $end
$var wire 1 V Add0~1_combout $end
$var wire 1 W Add0~2_combout $end
$var wire 1 X Add0~3_combout $end
$var wire 1 Y Add0~8_combout $end
$var wire 1 Z Add0~13_combout $end
$var wire 1 [ Mux28~1_combout $end
$var wire 1 \ Add0~16_combout $end
$var wire 1 ] Add0~20_combout $end
$var wire 1 ^ Add0~25_combout $end
$var wire 1 _ Add0~28_combout $end
$var wire 1 ` Mux25~2_combout $end
$var wire 1 a Add0~32_combout $end
$var wire 1 b Add0~37_combout $end
$var wire 1 c Add0~40_combout $end
$var wire 1 d Add0~44_combout $end
$var wire 1 e Mux21~2_combout $end
$var wire 1 f Add0~49_combout $end
$var wire 1 g Add0~53_combout $end
$var wire 1 h Mux18~1_combout $end
$var wire 1 i Add0~57_combout $end
$var wire 1 j Mux18~2_combout $end
$var wire 1 k Add0~60_combout $end
$var wire 1 l Add0~65_combout $end
$var wire 1 m Add0~69_combout $end
$var wire 1 n Add0~73_combout $end
$var wire 1 o Add0~77_combout $end
$var wire 1 p Mux12~1_combout $end
$var wire 1 q Add0~81_combout $end
$var wire 1 r Mux12~2_combout $end
$var wire 1 s Add0~84_combout $end
$var wire 1 t Add0~89_combout $end
$var wire 1 u Add0~93_combout $end
$var wire 1 v Mux9~2_combout $end
$var wire 1 w Add0~96_combout $end
$var wire 1 x Add0~100_combout $end
$var wire 1 y Add0~105_combout $end
$var wire 1 z Add0~108_combout $end
$var wire 1 { Add0~112_combout $end
$var wire 1 | Add0~116_combout $end
$var wire 1 } Add0~120_combout $end
$var wire 1 ~ Add0~125_combout $end
$var wire 1 !! Mux1~1_combout $end
$var wire 1 "! Mux1~2_combout $end
$var wire 1 #! Mux0~1_combout $end
$var wire 1 $! Add0~128_combout $end
$var wire 1 %! Add0~129_combout $end
$var wire 1 &! Mux0~2_combout $end
$var wire 1 '! Mux31~0_combout $end
$var wire 1 (! Mux31~1_combout $end
$var wire 1 )! Mux31~3_combout $end
$var wire 1 *! Add0~0_combout $end
$var wire 1 +! Add0~5_cout $end
$var wire 1 ,! Add0~6_combout $end
$var wire 1 -! Mux31~4_combout $end
$var wire 1 .! Mux31~2_combout $end
$var wire 1 /! Mux31~5_combout $end
$var wire 1 0! Mux31~6_combout $end
$var wire 1 1! Mux30~0_combout $end
$var wire 1 2! Add0~9_combout $end
$var wire 1 3! Add0~7 $end
$var wire 1 4! Add0~10_combout $end
$var wire 1 5! Mux30~1_combout $end
$var wire 1 6! Mux30~2_combout $end
$var wire 1 7! Mux30~3_combout $end
$var wire 1 8! Mux30~4_combout $end
$var wire 1 9! Add0~12_combout $end
$var wire 1 :! Add0~11 $end
$var wire 1 ;! Add0~14_combout $end
$var wire 1 <! Mux29~2_combout $end
$var wire 1 =! Mux29~1_combout $end
$var wire 1 >! Mux29~3_combout $end
$var wire 1 ?! Mux29~0_combout $end
$var wire 1 @! Mux29~4_combout $end
$var wire 1 A! Add0~17_combout $end
$var wire 1 B! Add0~15 $end
$var wire 1 C! Add0~18_combout $end
$var wire 1 D! Mux28~2_combout $end
$var wire 1 E! Mux28~3_combout $end
$var wire 1 F! Mux28~0_combout $end
$var wire 1 G! Mux28~4_combout $end
$var wire 1 H! Mux27~0_combout $end
$var wire 1 I! Add0~21_combout $end
$var wire 1 J! Add0~19 $end
$var wire 1 K! Add0~22_combout $end
$var wire 1 L! Mux27~2_combout $end
$var wire 1 M! Mux27~1_combout $end
$var wire 1 N! Mux27~3_combout $end
$var wire 1 O! Mux27~4_combout $end
$var wire 1 P! Mux26~0_combout $end
$var wire 1 Q! Mux26~1_combout $end
$var wire 1 R! Mux26~2_combout $end
$var wire 1 S! Mux26~3_combout $end
$var wire 1 T! Mux26~4_combout $end
$var wire 1 U! Mux25~1_combout $end
$var wire 1 V! Mux25~3_combout $end
$var wire 1 W! Mux25~0_combout $end
$var wire 1 X! Mux25~4_combout $end
$var wire 1 Y! Add0~33_combout $end
$var wire 1 Z! Add0~29_combout $end
$var wire 1 [! Add0~24_combout $end
$var wire 1 \! Add0~23 $end
$var wire 1 ]! Add0~27 $end
$var wire 1 ^! Add0~31 $end
$var wire 1 _! Add0~34_combout $end
$var wire 1 `! Mux24~1_combout $end
$var wire 1 a! Mux24~2_combout $end
$var wire 1 b! Mux24~3_combout $end
$var wire 1 c! Mux24~0_combout $end
$var wire 1 d! Mux24~4_combout $end
$var wire 1 e! Add0~36_combout $end
$var wire 1 f! Add0~35 $end
$var wire 1 g! Add0~38_combout $end
$var wire 1 h! Mux23~2_combout $end
$var wire 1 i! Mux23~1_combout $end
$var wire 1 j! Mux23~3_combout $end
$var wire 1 k! Mux23~0_combout $end
$var wire 1 l! Mux23~4_combout $end
$var wire 1 m! Mux22~1_combout $end
$var wire 1 n! Mux22~2_combout $end
$var wire 1 o! Mux22~3_combout $end
$var wire 1 p! Mux22~0_combout $end
$var wire 1 q! Mux22~4_combout $end
$var wire 1 r! Mux21~0_combout $end
$var wire 1 s! Mux21~1_combout $end
$var wire 1 t! Mux21~3_combout $end
$var wire 1 u! Mux21~4_combout $end
$var wire 1 v! Add0~48_combout $end
$var wire 1 w! Add0~45_combout $end
$var wire 1 x! Add0~41_combout $end
$var wire 1 y! Add0~39 $end
$var wire 1 z! Add0~43 $end
$var wire 1 {! Add0~47 $end
$var wire 1 |! Add0~50_combout $end
$var wire 1 }! Mux20~1_combout $end
$var wire 1 ~! Mux20~2_combout $end
$var wire 1 !" Mux20~3_combout $end
$var wire 1 "" Mux20~0_combout $end
$var wire 1 #" Mux20~4_combout $end
$var wire 1 $" Mux19~0_combout $end
$var wire 1 %" Add0~52_combout $end
$var wire 1 &" Add0~51 $end
$var wire 1 '" Add0~54_combout $end
$var wire 1 (" Mux19~2_combout $end
$var wire 1 )" Mux19~1_combout $end
$var wire 1 *" Mux19~3_combout $end
$var wire 1 +" Mux19~4_combout $end
$var wire 1 ," Mux18~0_combout $end
$var wire 1 -" Mux18~3_combout $end
$var wire 1 ." Mux18~4_combout $end
$var wire 1 /" Mux17~0_combout $end
$var wire 1 0" Mux17~1_combout $end
$var wire 1 1" Add0~61_combout $end
$var wire 1 2" Add0~56_combout $end
$var wire 1 3" Add0~55 $end
$var wire 1 4" Add0~59 $end
$var wire 1 5" Add0~62_combout $end
$var wire 1 6" Mux17~2_combout $end
$var wire 1 7" Mux17~3_combout $end
$var wire 1 8" Mux17~4_combout $end
$var wire 1 9" Add0~64_combout $end
$var wire 1 :" Add0~63 $end
$var wire 1 ;" Add0~66_combout $end
$var wire 1 <" Mux16~1_combout $end
$var wire 1 =" Mux16~2_combout $end
$var wire 1 >" Mux16~3_combout $end
$var wire 1 ?" Mux16~0_combout $end
$var wire 1 @" Mux16~4_combout $end
$var wire 1 A" Mux15~1_combout $end
$var wire 1 B" Add0~68_combout $end
$var wire 1 C" Add0~67 $end
$var wire 1 D" Add0~70_combout $end
$var wire 1 E" Mux15~2_combout $end
$var wire 1 F" Mux15~3_combout $end
$var wire 1 G" Mux15~0_combout $end
$var wire 1 H" Mux15~4_combout $end
$var wire 1 I" Mux14~0_combout $end
$var wire 1 J" Add0~72_combout $end
$var wire 1 K" Add0~71 $end
$var wire 1 L" Add0~74_combout $end
$var wire 1 M" Mux14~1_combout $end
$var wire 1 N" Mux14~2_combout $end
$var wire 1 O" Mux14~3_combout $end
$var wire 1 P" Mux14~4_combout $end
$var wire 1 Q" Add0~76_combout $end
$var wire 1 R" Add0~75 $end
$var wire 1 S" Add0~78_combout $end
$var wire 1 T" Mux13~2_combout $end
$var wire 1 U" Mux13~1_combout $end
$var wire 1 V" Mux13~3_combout $end
$var wire 1 W" Mux13~0_combout $end
$var wire 1 X" Mux13~4_combout $end
$var wire 1 Y" Mux12~0_combout $end
$var wire 1 Z" Mux12~3_combout $end
$var wire 1 [" Mux12~4_combout $end
$var wire 1 \" Mux11~0_combout $end
$var wire 1 ]" Add0~85_combout $end
$var wire 1 ^" Add0~80_combout $end
$var wire 1 _" Add0~79 $end
$var wire 1 `" Add0~83 $end
$var wire 1 a" Add0~86_combout $end
$var wire 1 b" Mux11~2_combout $end
$var wire 1 c" Mux11~1_combout $end
$var wire 1 d" Mux11~3_combout $end
$var wire 1 e" Mux11~4_combout $end
$var wire 1 f" Add0~88_combout $end
$var wire 1 g" Add0~87 $end
$var wire 1 h" Add0~90_combout $end
$var wire 1 i" Mux10~1_combout $end
$var wire 1 j" Mux10~2_combout $end
$var wire 1 k" Mux10~3_combout $end
$var wire 1 l" Mux10~0_combout $end
$var wire 1 m" Mux10~4_combout $end
$var wire 1 n" Mux9~1_combout $end
$var wire 1 o" Mux9~3_combout $end
$var wire 1 p" Mux9~0_combout $end
$var wire 1 q" Mux9~4_combout $end
$var wire 1 r" Mux8~0_combout $end
$var wire 1 s" Mux8~1_combout $end
$var wire 1 t" Add0~97_combout $end
$var wire 1 u" Add0~92_combout $end
$var wire 1 v" Add0~91 $end
$var wire 1 w" Add0~95 $end
$var wire 1 x" Add0~98_combout $end
$var wire 1 y" Mux8~2_combout $end
$var wire 1 z" Mux8~3_combout $end
$var wire 1 {" Mux8~4_combout $end
$var wire 1 |" Mux7~0_combout $end
$var wire 1 }" Mux7~2_combout $end
$var wire 1 ~" Mux7~1_combout $end
$var wire 1 !# Mux7~3_combout $end
$var wire 1 "# Mux7~4_combout $end
$var wire 1 ## Add0~104_combout $end
$var wire 1 $# Add0~101_combout $end
$var wire 1 %# Add0~99 $end
$var wire 1 &# Add0~103 $end
$var wire 1 '# Add0~106_combout $end
$var wire 1 (# Mux6~1_combout $end
$var wire 1 )# Mux6~2_combout $end
$var wire 1 *# Mux6~3_combout $end
$var wire 1 +# Mux6~0_combout $end
$var wire 1 ,# Mux6~4_combout $end
$var wire 1 -# Mux5~0_combout $end
$var wire 1 .# Mux5~2_combout $end
$var wire 1 /# Mux5~1_combout $end
$var wire 1 0# Mux5~3_combout $end
$var wire 1 1# Mux5~4_combout $end
$var wire 1 2# Mux4~0_combout $end
$var wire 1 3# Mux4~1_combout $end
$var wire 1 4# Add0~113_combout $end
$var wire 1 5# Add0~109_combout $end
$var wire 1 6# Add0~107 $end
$var wire 1 7# Add0~111 $end
$var wire 1 8# Add0~114_combout $end
$var wire 1 9# Mux4~2_combout $end
$var wire 1 :# Mux4~3_combout $end
$var wire 1 ;# Mux4~4_combout $end
$var wire 1 <# Mux3~0_combout $end
$var wire 1 =# Mux3~1_combout $end
$var wire 1 ># Mux3~2_combout $end
$var wire 1 ?# Mux3~3_combout $end
$var wire 1 @# Add0~117_combout $end
$var wire 1 A# Add0~115 $end
$var wire 1 B# Add0~118_combout $end
$var wire 1 C# Mux3~4_combout $end
$var wire 1 D# Mux3~5_combout $end
$var wire 1 E# Mux2~0_combout $end
$var wire 1 F# Add0~121_combout $end
$var wire 1 G# Add0~119 $end
$var wire 1 H# Add0~122_combout $end
$var wire 1 I# Mux2~1_combout $end
$var wire 1 J# Mux2~2_combout $end
$var wire 1 K# Mux2~3_combout $end
$var wire 1 L# Mux2~4_combout $end
$var wire 1 M# Mux1~0_combout $end
$var wire 1 N# Mux1~3_combout $end
$var wire 1 O# Add0~124_combout $end
$var wire 1 P# Add0~123 $end
$var wire 1 Q# Add0~126_combout $end
$var wire 1 R# Mux1~4_combout $end
$var wire 1 S# Mux1~5_combout $end
$var wire 1 T# Mux0~3_combout $end
$var wire 1 U# Mux0~0_combout $end
$var wire 1 V# Mux0~4_combout $end
$var wire 1 W# B~combout [31] $end
$var wire 1 X# B~combout [30] $end
$var wire 1 Y# B~combout [29] $end
$var wire 1 Z# B~combout [28] $end
$var wire 1 [# B~combout [27] $end
$var wire 1 \# B~combout [26] $end
$var wire 1 ]# B~combout [25] $end
$var wire 1 ^# B~combout [24] $end
$var wire 1 _# B~combout [23] $end
$var wire 1 `# B~combout [22] $end
$var wire 1 a# B~combout [21] $end
$var wire 1 b# B~combout [20] $end
$var wire 1 c# B~combout [19] $end
$var wire 1 d# B~combout [18] $end
$var wire 1 e# B~combout [17] $end
$var wire 1 f# B~combout [16] $end
$var wire 1 g# B~combout [15] $end
$var wire 1 h# B~combout [14] $end
$var wire 1 i# B~combout [13] $end
$var wire 1 j# B~combout [12] $end
$var wire 1 k# B~combout [11] $end
$var wire 1 l# B~combout [10] $end
$var wire 1 m# B~combout [9] $end
$var wire 1 n# B~combout [8] $end
$var wire 1 o# B~combout [7] $end
$var wire 1 p# B~combout [6] $end
$var wire 1 q# B~combout [5] $end
$var wire 1 r# B~combout [4] $end
$var wire 1 s# B~combout [3] $end
$var wire 1 t# B~combout [2] $end
$var wire 1 u# B~combout [1] $end
$var wire 1 v# B~combout [0] $end
$var wire 1 w# Sel~combout [3] $end
$var wire 1 x# Sel~combout [2] $end
$var wire 1 y# Sel~combout [1] $end
$var wire 1 z# Sel~combout [0] $end
$var wire 1 {# A~combout [31] $end
$var wire 1 |# A~combout [30] $end
$var wire 1 }# A~combout [29] $end
$var wire 1 ~# A~combout [28] $end
$var wire 1 !$ A~combout [27] $end
$var wire 1 "$ A~combout [26] $end
$var wire 1 #$ A~combout [25] $end
$var wire 1 $$ A~combout [24] $end
$var wire 1 %$ A~combout [23] $end
$var wire 1 &$ A~combout [22] $end
$var wire 1 '$ A~combout [21] $end
$var wire 1 ($ A~combout [20] $end
$var wire 1 )$ A~combout [19] $end
$var wire 1 *$ A~combout [18] $end
$var wire 1 +$ A~combout [17] $end
$var wire 1 ,$ A~combout [16] $end
$var wire 1 -$ A~combout [15] $end
$var wire 1 .$ A~combout [14] $end
$var wire 1 /$ A~combout [13] $end
$var wire 1 0$ A~combout [12] $end
$var wire 1 1$ A~combout [11] $end
$var wire 1 2$ A~combout [10] $end
$var wire 1 3$ A~combout [9] $end
$var wire 1 4$ A~combout [8] $end
$var wire 1 5$ A~combout [7] $end
$var wire 1 6$ A~combout [6] $end
$var wire 1 7$ A~combout [5] $end
$var wire 1 8$ A~combout [4] $end
$var wire 1 9$ A~combout [3] $end
$var wire 1 :$ A~combout [2] $end
$var wire 1 ;$ A~combout [1] $end
$var wire 1 <$ A~combout [0] $end
$upscope $end
$upscope $end
$enddefinitions $end
#0
$dumpvars
b1111 !
b111 "
b0 #
xC
xB
xA
x@
x?
x>
x=
x<
x;
x:
x9
x8
x7
x6
x5
x4
x3
x2
x1
x0
x/
x.
x-
x,
x+
x*
x)
x(
x'
x&
x%
x$
xD
0E
1F
xG
1H
1I
1J
xK
xL
xM
xN
xO
xP
xQ
xR
xS
xT
xU
xV
xW
xX
xY
xZ
x[
x\
x]
x^
x_
x`
xa
xb
xc
xd
xe
xf
xg
xh
xi
xj
xk
xl
xm
xn
xo
xp
xq
xr
xs
xt
xu
xv
xw
xx
xy
xz
x{
x|
x}
x~
x!!
x"!
x#!
x$!
x%!
x&!
x'!
x(!
x)!
x*!
x+!
x,!
x-!
x.!
x/!
x0!
x1!
x2!
x3!
x4!
x5!
x6!
x7!
x8!
x9!
x:!
x;!
x<!
x=!
x>!
x?!
x@!
xA!
xB!
xC!
xD!
xE!
xF!
xG!
xH!
xI!
xJ!
xK!
xL!
xM!
xN!
xO!
xP!
xQ!
xR!
xS!
xT!
xU!
xV!
xW!
xX!
xY!
xZ!
x[!
x\!
x]!
x^!
x_!
x`!
xa!
xb!
xc!
xd!
xe!
xf!
xg!
xh!
xi!
xj!
xk!
xl!
xm!
xn!
xo!
xp!
xq!
xr!
xs!
xt!
xu!
xv!
xw!
xx!
xy!
xz!
x{!
x|!
x}!
x~!
x!"
x""
x#"
x$"
x%"
x&"
x'"
x("
x)"
x*"
x+"
x,"
x-"
x."
x/"
x0"
x1"
x2"
x3"
x4"
x5"
x6"
x7"
x8"
x9"
x:"
x;"
x<"
x="
x>"
x?"
x@"
xA"
xB"
xC"
xD"
xE"
xF"
xG"
xH"
xI"
xJ"
xK"
xL"
xM"
xN"
xO"
xP"
xQ"
xR"
xS"
xT"
xU"
xV"
xW"
xX"
xY"
xZ"
x["
x\"
x]"
x^"
x_"
x`"
xa"
xb"
xc"
xd"
xe"
xf"
xg"
xh"
xi"
xj"
xk"
xl"
xm"
xn"
xo"
xp"
xq"
xr"
xs"
xt"
xu"
xv"
xw"
xx"
xy"
xz"
x{"
x|"
x}"
x~"
x!#
x"#
x##
x$#
x%#
x&#
x'#
x(#
x)#
x*#
x+#
x,#
x-#
x.#
x/#
x0#
x1#
x2#
x3#
x4#
x5#
x6#
x7#
x8#
x9#
x:#
x;#
x<#
x=#
x>#
x?#
x@#
xA#
xB#
xC#
xD#
xE#
xF#
xG#
xH#
xI#
xJ#
xK#
xL#
xM#
xN#
xO#
xP#
xQ#
xR#
xS#
xT#
xU#
xV#
1v#
1u#
1t#
0s#
0r#
0q#
0p#
0o#
0n#
0m#
0l#
0k#
0j#
0i#
0h#
0g#
0f#
0e#
0d#
0c#
0b#
0a#
0`#
0_#
0^#
0]#
0\#
0[#
0Z#
0Y#
0X#
0W#
0z#
0y#
0x#
0w#
1<$
1;$
1:$
19$
08$
07$
06$
05$
04$
03$
02$
01$
00$
0/$
0.$
0-$
0,$
0+$
0*$
0)$
0($
0'$
0&$
0%$
0$$
0#$
0"$
0!$
0~#
0}#
0|#
0{#
$end
#2165
0)!
#2321
0X
#2483
1V
#3210
0+!
#5037
1c!
#5140
1I"
1M"
#5147
0e!
#5148
1k!
#5174
1P!
#5273
1H!
#5281
02"
#5286
1h
#5287
0i
#5293
1,"
#5307
0B"
#5309
1G"
#5332
1$"
1)"
#5337
0g
#5344
1r"
1s"
#5374
0w
#5402
12#
#5408
1-#
#5410
1/#
#5417
0l
#5419
0f"
#5427
0|
#5435
0t"
#5450
0[
#5453
1M#
0~
#5457
1!!
#5459
0m
#5464
0n
#5513
0J"
#5536
0F#
#5566
1U#
0%"
#5567
0y
#5570
1#!
0%!
0{
#5581
1i"
#5582
0]
#5585
0x
#5593
1<"
1?"
#5595
1l"
1W"
#5598
1W!
#5600
1U!
#5601
0o
#5604
1<#
0Z!
1U"
#5606
0a
#5611
1+#
#5612
0$!
#5613
1(#
#5614
1\"
#5615
1c"
#5624
0]"
#5628
0Q"
#5634
1A"
#5637
0u"
#5638
0t
#5639
1p"
#5646
1E#
#5650
0}
#5654
1F!
#5656
0O#
#5659
0\
#5660
0_
#5688
1|"
#5695
0c
#5702
19!
#5707
1I#
#5724
0u
#5727
1n"
#5768
1i!
#5774
0b
#5783
0w!
#5784
1s!
#5785
0x!
#5788
1r!
#5799
1Y"
1/"
01"
#5801
10"
#5803
0^"
#5808
1Y
#5813
0=!
#5814
0##
0?!
#5817
05!
#5820
01!
#5829
0v!
#5833
1""
#5834
0Y!
#5841
09"
#5853
1Q!
#5859
0^
#5871
0[!
#5873
1~"
#5910
0I!
#5916
0q
#5921
04#
#5922
1p
#5944
13#
0k
#5986
1"!
1=#
#5987
0@#
#5989
0(!
#6009
1p!
#6046
0s
#6048
1m!
#6087
0z
#6088
1M!
#6107
1A!
#6120
0d
#6135
1`!
#6150
05#
#6176
0$#
#6185
0f
#6189
1}!
#6230
0.!
#6337
0'!
#6359
1*!
#6368
1W
#6383
1>#
#6416
1Z
#6452
06#
#6462
04"
#6556
1K"
#6564
0A#
#6574
0R"
#6577
0P#
#6631
1^!
#6635
1G#
#6648
12!
#6694
13"
#6794
17#
#6795
1_"
#6821
0v"
#6832
1T
#6833
0%#
#6862
0S
#6940
1y!
#6955
1w"
#6966
0L"
#6972
0f!
#6984
0S"
#6987
0Q#
#7006
1&#
#7041
0_!
#7045
0H#
#7091
0`"
#7095
0B!
#7104
0O
#7117
0C"
#7139
0B#
#7166
1J!
#7169
0z!
#7190
1g"
#7204
08#
#7205
0P
#7210
0N#
#7231
0Q
#7238
0]!
#7240
1{!
#7242
0U
#7243
0R
#7263
1\!
#7272
1:"
#7346
0&"
#7350
0M
#7365
0x"
#7382
0g!
#7396
05"
#7416
0'#
#7449
03!
#7473
0,!
#7501
0a"
#7505
0C!
#7527
0D"
#7576
1K!
#7600
0h"
#7648
0L
#7650
0|!
#7673
0K
#7682
0;"
#7725
0?#
#7756
0'"
#7760
0J#
#7773
1:!
#7802
09#
#7818
0R#
#7833
0N
#7859
14!
0T"
#8029
0C#
#8084
0r
#8102
0E"
#8109
0j
#8110
0v
#8111
0a!
#8124
0)#
#8152
0}"
0K#
#8183
1;!
#8188
0`
#8192
0:#
#8207
0S#
#8260
0&!
#8281
0y"
#8290
0-!
#8292
0.#
#8360
0N"
#8410
0b"
#8413
0="
#8439
0D!
#8498
0F"
#8515
0*#
#8522
0V"
#8621
0("
#8635
0b!
#8637
0h!
#8654
1L!
#8656
0~!
#8675
0L#
#8682
0!#
#8703
0D#
#8725
0;#
#8730
0j"
#8783
0Z"
#8800
0n!
#8813
0-"
#8817
0/!
#8841
0E!
#8852
1<!
#8891
0V!
#8893
0O"
16!
#8941
0d"
#8952
0z"
#8958
00#
#8994
0o"
#9034
06"
#9119
0k"
#9153
0d!
#9159
0R!
#9172
0H"
#9180
1N!
0!"
#9192
0X"
#9206
0."
#9215
00!
#9258
0>"
#9266
0e
#9290
0P"
#9292
0*"
#9305
0j!
#9313
0["
#9332
0e"
#9348
01#
#9353
0"#
#9392
0T#
#9398
0,#
#9421
17!
#9427
07"
#9492
0o!
#9515
0G!
#9524
1>!
#9567
0{"
#9570
1O!
#9589
0X!
#9659
0q"
#9823
0m"
#9832
0S!
#9874
0+"
#9878
0#"
#9928
0@"
#9956
08"
#9969
0t!
#9974
0l!
#10225
1@!
#10281
0V#
#10348
18!
#10430
0T!
#10602
0q!
#10678
0u!
#12240
0%
#12379
0'
#12614
0<
#12712
02
#12730
00
#12937
0&
#12966
0(
#13038
0/
#13206
06
#13315
0,
#13363
01
#13493
0)
#13585
0*
#13609
03
#13661
0C
#13754
0-
#13805
1?
#13831
0=
#13934
0@
#14025
0.
#14056
08
#14145
04
#14184
1A
#14284
07
#14302
05
#14364
0;
#14468
0+
#14537
0:
#14571
0>
#14656
0$
#15018
09
#15167
1B
#60000
b1 #
0D
#60979
1z#
#62653
1{
#62654
1z
#62655
1x
#62656
1##
#62661
1u"
#62669
1}
#62671
1s
#62678
1O#
#62684
1]
#62917
1|
#62963
0V
1\
#62964
1[
#62970
0F!
#63036
1c
#63122
1a
#63124
1J"
#63130
1Q"
#63131
1%"
#63134
1d
#63188
1f"
#63193
1[!
#63196
09!
#63201
1w
#63259
19"
1B"
#63271
1k
#63294
1_
#63298
1$!
#63300
1X
#63317
12"
#63321
1'#
#63356
18#
#63357
1S
#63395
1v!
#63508
1H#
#63549
1e!
#63663
0W
#63785
1Q#
#63791
1R
#63796
1Q
#63801
1^"
#63809
0Y
#63839
1a"
#63867
1K
0;!
#63954
19#
#64029
1)#
#64068
0\!
1C!
#64092
0K!
#64117
1D"
#64118
1B#
#64139
1]!
#64171
1U
#64189
1+!
#64212
1L"
#64223
1J#
#64278
1S"
#64282
1'"
#64285
0^!
#64344
1:#
#64345
1h"
#64356
1f!
#64420
1*#
#64474
1M
1O
#64478
0K
#64536
0<!
#64541
1|!
#64562
1;"
#64615
1K#
#64616
1R#
#64675
1v
#64684
1x"
#64692
1E"
#64700
1}"
#64723
15"
#64748
1b"
#64787
1.#
#64847
1N
#64877
1;#
#64908
0y!
#64967
1P
#64979
1z!
#65002
1D!
#65005
1S#
#65006
04!
#65008
1C#
#65050
0{!
#65088
1F"
#65121
1&"
#65138
1L#
#65147
1("
#65153
1T"
#65170
0L!
#65189
1&!
#65192
03"
#65208
0>!
#65230
1!#
#65263
14"
#65279
1d"
#65293
1="
#65303
1,#
#65318
0M
#65389
0N
#65404
1E!
#65422
0:"
#65453
10#
#65460
0|!
#65475
1j"
#65479
1j
#65493
1C"
#65531
0'"
#65547
1~!
#65559
1o"
#65564
0K"
#65600
1y"
#65602
0O
#65606
1N"
#65635
1R"
#65670
1e"
#65673
05"
#65682
1D#
#65696
0N!
#65706
0_"
#65762
1H"
#65777
1`"
#65816
1V"
#65818
1*"
#65832
0;"
#65843
11#
#65846
1r
#65848
0g"
#65864
1k"
#65901
1"#
#65903
0D"
#65909
0@!
#65919
1v"
#65974
0L"
#66040
06!
#66045
0S"
#66065
0w"
#66071
1!"
#66078
1G!
#66086
0O!
#66116
0P
#66136
1%#
#66138
1>"
#66139
1O"
#66183
1-"
#66187
0a"
#66207
0&#
#66224
1q"
#66258
0h"
#66271
1z"
#66278
16#
#66321
1T#
#66329
0Q
#66349
07#
#66396
0("
#66400
1+"
#66420
1A#
#66466
0~!
#66475
0x"
#66478
0E"
#66486
1X"
#66491
0G#
#66536
1P"
#66545
1Z"
#66546
0R
#66562
1P#
#66563
0="
#66568
1m"
07!
#66576
1."
#66607
0j
#66617
0'#
#66688
0S
#66721
0T
#66759
08#
#66769
1#"
#66808
1@"
#66830
0B#
#66874
0F"
#66886
1{"
#66901
0H#
#66920
0T"
#66972
0Q#
#66990
0!"
#66995
0r
#67067
0*"
#67075
1["
#67096
0b"
#67131
0U
#67208
0v
#67210
1V#
#67311
0-"
#67325
0)#
#67357
09#
#67368
0N"
#67388
0j"
#67391
0y"
#67408
0>"
#67455
0}"
#67495
08!
#67548
0H"
#67583
0V"
#67616
0J#
#67627
0d"
#67649
0+"
#67688
0#"
#67694
0Z"
#67704
0."
#67716
0*#
#67720
0C#
#67747
0:#
#67777
0k"
#67803
0R#
#67901
0O"
#67985
0!#
#68008
0K#
#68018
0e"
#68062
0z"
#68078
0@"
#68092
0o"
#68118
0.#
#68149
0&!
#68192
0S#
#68224
0["
#68253
0X"
#68280
0;#
#68298
0P"
#68394
0D#
#68481
0m"
#68531
0L#
#68599
0,#
#68656
0"#
#68677
0{"
#68757
0q"
#68784
00#
#69038
1%
#69118
1(
#69174
01#
#69281
0T#
#69400
1&
#69490
1*
#69868
0A
#69988
1)
#70170
0V#
#70321
0?
#70497
1@
#71585
1$
#72225
0%
#72314
0B
#72521
0(
#72786
0*
#72793
0&
#73319
0)
#74545
0$
#120000
b11 #
b10 #
1D
#120979
1y#
0z#
#122653
0{
#122654
0z
#122655
0x
#122656
0##
#122661
0u"
#122669
0}
#122671
0s
#122678
0O#
#122684
0]
#122917
0|
#122935
0E#
#122936
0M!
#122938
0H!
#122945
0I#
#122963
1V
0\
#122964
0[
#122970
1F!
#123036
0c
#123067
0+#
03#
#123069
02#
#123071
0(#
#123103
0!!
#123109
0M#
0n"
#123114
0p"
#123122
0a
#123124
0J"
#123130
0Q"
#123131
0%"
0-#
#123133
0/#
#123134
0d
#123146
0W"
#123151
0U"
#123188
0f"
#123193
0[!
#123197
0l"
#123199
0|"
0~"
#123201
0w
#123206
0I"
0\"
#123252
1=!
#123259
09"
0B"
#123263
0}!
#123267
0i"
#123271
0k
#123275
0W!
#123276
0=#
#123279
0U!
#123281
0<#
#123282
0#!
#123283
0U#
#123294
06#
0_
#123298
0$!
#123300
0X
#123317
02"
#123321
1'#
0,"
#123332
0A#
#123333
17#
#123368
0p!
#123371
0<"
0A"
#123372
0G"
#123378
0?"
0c!
#123395
0v!
#123399
0P!
#123403
1G#
#123406
0m!
#123407
0Q!
#123417
0$"
#123419
0)"
#123429
0c"
#123430
0M"
#123438
0i!
#123443
0h
0`!
#123460
1(!
#123471
0""
#123484
0P#
#123531
0Y"
#123547
0k!
#123549
0e!
#123556
15!
#123624
0s"
#123625
0r"
#123632
0"!
#123663
1W
#123673
0>#
#123697
0p
#123767
1&#
#123791
1R
#123796
1Q
#123801
0^"
#123815
1g"
#123839
1a"
#123840
0]!
#123854
1T
#123865
1w"
#123867
1K
#123886
0v"
#123936
0%#
#123976
0/"
00"
#123977
0r!
#123981
0s!
#124029
1)#
#124068
1\!
0C!
#124092
1K!
#124094
1K"
#124117
1D"
#124177
0'#
