lab1/simulation/qsim/Lab1_1.msim.vcd
$comment
	File created using the following command:
		vcd file Lab1_1.msim.vcd -direction
$end
$date
	Tue Aug 06 16:56:13 2019
$end
$version
	ModelSim Version 10.1d
$end
$timescale
	1ps
$end
$scope module Block4_vlg_vec_tst $end
$var reg 1 ! w1 $end
$var reg 1 " w2 $end
$var reg 1 # w3 $end
$var reg 1 $ w4 $end
$var reg 1 % x2 $end
$var wire 1 & f $end
$var wire 1 ' sampler $end
$scope module i1 $end
$var wire 1 ( gnd $end
$var wire 1 ) vcc $end
$var wire 1 * unknown $end
$var tri1 1 + devclrn $end
$var tri1 1 , devpor $end
$var tri1 1 - devoe $end
$var wire 1 . x2~combout $end
$var wire 1 / w1~combout $end
$var wire 1 0 w3~combout $end
$var wire 1 1 w2~combout $end
$var wire 1 2 inst|inst2~0_combout $end
$var wire 1 3 w4~combout $end
$var wire 1 4 inst|inst2~1_combout $end
$var wire 1 5 inst|inst2~2_combout $end
$upscope $end
$upscope $end
$enddefinitions $end
#0
$dumpvars
0!
0"
0#
0$
0%
0&
x'
0(
1)
x*
1+
1,
1-
0.
0/
00
01
02
03
04
05
$end
#1000
1!
1/
0'
#2000
1"
0!
11
0/
1'
#3000
1!
1/
0'
#4000
1#
0"
0!
10
01
0/
1'
#5000
1!
1/
0'
12
15
1&
#6000
1"
0!
11
0/
1'
02
05
0&
#7000
1!
1/
0'
12
15
1&
#8000
1$
0#
0"
0!
13
00
01
0/
1'
02
05
0&
#9000
1!
1/
0'
#10000
1"
0!
11
0/
1'
14
15
1&
#11000
1!
1/
0'
#12000
1#
0"
0!
10
01
0/
1'
04
05
0&
#13000
1!
1/
0'
12
15
1&
#14000
1"
0!
11
0/
1'
14
02
#15000
1!
1/
0'
12
#16000
1%
0$
0#
0"
0!
1.
03
00
01
0/
1'
04
02
05
0&
#17000
1!
1/
0'
#18000
1"
0!
11
0/
1'
#19000
1!
1/
0'
12
15
1&
#20000
1#
0"
0!
10
01
0/
1'
02
05
0&
#21000
1!
1/
0'
#22000
1"
0!
11
0/
1'
#23000
1!
1/
0'
12
15
1&
#24000
1$
0#
0"
0!
13
00
01
0/
1'
02
05
0&
#25000
1!
1/
0'
#26000
1"
0!
11
0/
1'
#27000
1!
1/
0'
12
15
1&
#28000
1#
0"
0!
10
01
0/
1'
14
02
#29000
1!
1/
0'
#30000
1"
0!
11
0/
1'
#31000
1!
1/
0'
12
#32000
0%
0$
0#
0"
0!
0.
03
00
01
0/
1'
04
02
05
0&
#33000
1!
1/
0'
#34000
1"
0!
11
0/
1'
#35000
1!
1/
0'
#36000
1#
0"
0!
10
01
0/
1'
#37000
1!
1/
0'
12
15
1&
#38000
1"
0!
11
0/
1'
02
05
0&
#39000
1!
1/
0'
12
15
1&
#40000
1$
0#
0"
0!
13
00
01
0/
1'
02
05
0&
#41000
1!
1/
0'
#42000
1"
0!
11
0/
1'
14
15
1&
#43000
1!
1/
0'
#44000
1#
0"
0!
10
01
0/
1'
04
05
0&
#45000
1!
1/
0'
12
15
1&
#46000
1"
0!
11
0/
1'
14
02
#47000
1!
1/
0'
12
#48000
1%
0$
0#
0"
0!
1.
03
00
01
0/
1'
04
02
05
0&
#49000
1!
1/
0'
#50000
1"
0!
11
0/
1'
#51000
1!
1/
0'
12
15
1&
#52000
1#
0"
0!
10
01
0/
1'
02
05
0&
#53000
1!
1/
0'
#54000
1"
0!
11
0/
1'
#55000
1!
1/
0'
12
15
1&
#56000
1$
0#
0"
0!
13
00
01
0/
1'
02
05
0&
#57000
1!
1/
0'
#58000
1"
0!
11
0/
1'
#59000
1!
1/
0'
12
15
1&
#60000
1#
0"
0!
10
01
0/
1'
14
02
#61000
1!
1/
0'
#62000
1"
0!
11
0/
1'
#63000
1!
1/
0'
12
#64000
0%
0$
0#
0"
0!
0.
03
00
01
0/
1'
04
02
05
0&
#65000
1!
1/
0'
#66000
1"
0!
11
0/
1'
#67000
1!
1/
0'
#68000
1#
0"
0!
10
01
0/
1'
#69000
1!
1/
0'
12
15
1&
#70000
1"
0!
11
0/
1'
02
05
0&
#71000
1!
1/
0'
12
15
1&
#72000
1$
0#
0"
0!
13
00
01
0/
1'
02
05
0&
#73000
1!
1/
0'
#74000
1"
0!
11
0/
1'
14
15
1&
#75000
1!
1/
0'
#76000
1#
0"
0!
10
01
0/
1'
04
05
0&
#77000
1!
1/
0'
12
15
1&
#78000
1"
0!
11
0/
1'
14
02
#79000
1!
1/
0'
12
#80000
1%
0$
0#
0"
0!
1.
03
00
01
0/
1'
04
02
05
0&
#81000
1!
1/
0'
#82000
1"
0!
11
0/
1'
#83000
1!
1/
0'
12
15
1&
#84000
1#
0"
0!
10
01
0/
1'
02
05
0&
#85000
1!
1/
0'
#86000
1"
0!
11
0/
1'
#87000
1!
1/
0'
12
15
1&
#88000
1$
0#
0"
0!
13
00
01
0/
1'
02
05
0&
#89000
1!
1/
0'
#90000
1"
0!
11
0/
1'
#91000
1!
1/
0'
12
15
1&
#92000
1#
0"
0!
10
01
0/
1'
14
02
#93000
1!
1/
0'
#94000
1"
0!
11
0/
1'
#95000
1!
1/
0'
12
#96000
0%
0$
0#
0"
0!
0.
03
00
01
0/
1'
04
02
05
0&
#97000
1!
1/
0'
#98000
1"
0!
11
0/
1'
#99000
1!
1/
0'
#100000
1#
0"
0!
10
01
0/
1'
#101000
1!
1/
0'
12
15
1&
#102000
1"
0!
11
0/
1'
02
05
0&
#103000
1!
1/
0'
12
15
1&
#104000
1$
0#
0"
0!
13
00
01
0/
1'
02
05
0&
#105000
1!
1/
0'
#106000
1"
0!
11
0/
1'
14
15
1&
#107000
1!
1/
0'
#108000
1#
0"
0!
10
01
0/
1'
04
05
0&
#109000
1!
1/
0'
12
15
1&
#110000
1"
0!
11
0/
1'
14
02
#111000
1!
1/
0'
12
#112000
1%
0$
0#
0"
0!
1.
03
00
01
0/
1'
04
02
05
0&
#113000
1!
1/
0'
#114000
1"
0!
11
0/
1'
#115000
1!
1/
0'
12
15
1&
#116000
1#
0"
0!
10
01
0/
1'
02
05
0&
#117000
1!
1/
0'
#118000
1"
0!
11
0/
1'
#119000
1!
1/
0'
12
15
1&
#120000
1$
0#
0"
0!
13
00
01
0/
1'
02
05
0&
#121000
1!
1/
0'
#122000
1"
0!
11
0/
1'
#123000
1!
1/
0'
12
15
1&
#124000
1#
0"
0!
10
01
0/
1'
14
02
#125000
1!
1/
0'
#126000
1"
0!
11
0/
1'
#127000
1!
1/
0'
12
#128000
0%
0$
0#
0"
0!
0.
03
00
01
0/
1'
04
02
05
0&
#129000
1!
1/
0'
#130000
1"
0!
11
0/
1'
#131000
1!
1/
0'
#132000
1#
0"
0!
10
01
0/
1'
#133000
1!
1/
0'
12
15
1&
#134000
1"
0!
11
0/
1'
02
05
0&
#135000
1!
1/
0'
12
15
1&
#136000
1$
0#
0"
0!
13
00
01
0/
1'
02
05
0&
#137000
1!
1/
0'
#138000
1"
0!
11
0/
1'
14
15
1&
#139000
1!
1/
0'
#140000
1#
0"
0!
10
01
0/
1'
04
05
0&
#141000
1!
1/
0'
12
15
1&
#142000
1"
0!
11
0/
1'
14
02
#143000
1!
1/
0'
12
#144000
1%
0$
0#
0"
0!
1.
03
00
01
0/
1'
04
02
05
0&
#145000
1!
1/
0'
#146000
1"
0!
11
0/
1'
#147000
1!
1/
0'
12
15
1&
#148000
1#
0"
0!
10
01
0/
1'
02
05
0&
#149000
1!
1/
0'
#150000
1"
0!
11
0/
1'
#151000
1!
1/
0'
12
15
1&
#152000
1$
0#
0"
0!
13
00
01
0/
1'
02
05
0&
#153000
1!
1/
0'
#154000
1"
0!
11
0/
1'
#155000
1!
1/
0'
12
15
1&
#156000
1#
0"
0!
10
01
0/
1'
14
02
#157000
1!
1/
0'
#158000
1"
0!
11
0/
1'
#159000
1!
1/
0'
12
#160000
0%
0$
0#
0"
0!
0.
03
00
01
0/
1'
04
02
05
0&
#161000
1!
1/
0'
#162000
1"
0!
11
0/
1'
#163000
1!
1/
0'
#164000
1#
0"
0!
10
01
0/
1'
#165000
1!
1/
0'
12
15
1&
#166000
1"
0!
11
0/
1'
02
05
0&
#167000
1!
1/
0'
12
15
1&
#168000
1$
0#
0"
0!
13
00
01
0/
1'
02
05
0&
#169000
1!
1/
0'
#170000
1"
0!
11
0/
1'
14
15
1&
#171000
1!
1/
0'
#172000
1#
0"
0!
10
01
0/
1'
04
05
0&
#173000
1!
1/
0'
12
15
1&
#174000
1"
0!
11
0/
1'
14
02
#175000
1!
1/
0'
12
#176000
1%
0$
0#
0"
0!
1.
03
00
01
0/
1'
04
02
05
0&
#177000
1!
1/
0'
#178000
1"
0!
11
0/
1'
#179000
1!
1/
0'
12
15
1&
#180000
1#
0"
0!
10
01
0/
1'
02
05
0&
#181000
1!
1/
0'
#182000
1"
0!
11
0/
1'
#183000
1!
1/
0'
12
15
1&
#184000
1$
0#
0"
0!
13
00
01
0/
1'
02
05
0&
#185000
1!
1/
0'
#186000
1"
0!
11
0/
1'
#187000
1!
1/
0'
12
15
1&
#188000
1#
0"
0!
10
01
0/
1'
14
02
#189000
1!
1/
0'
#190000
1"
0!
11
0/
1'
#191000
1!
1/
0'
12
#192000
0%
0$
0#
0"
0!
0.
03
00
01
0/
1'
04
02
05
0&
#193000
1!
1/
0'
#194000
1"
0!
11
0/
1'
#195000
1!
1/
0'
#196000
1#
0"
0!
10
01
0/
1'
#197000
1!
1/
0'
12
15
1&
#198000
1"
0!
11
0/
1'
02
05
0&
#199000
1!
1/
0'
12
15
1&
#200000
1$
0#
0"
0!
13
00
01
0/
1'
02
05
0&
#201000
1!
1/
0'
#202000
1"
0!
11
0/
1'
14
15
1&
#203000
1!
1/
0'
#204000
1#
0"
0!
10
01
0/
1'
04
05
0&
#205000
1!
1/
0'
12
15
1&
#206000
1"
0!
11
0/
1'
14
02
#207000
1!
1/
0'
12
#208000
1%
0$
0#
0"
0!
1.
03
00
01
0/
1'
04
02
05
0&
#209000
1!
1/
0'
#210000
1"
0!
11
0/
1'
#211000
1!
1/
0'
12
15
1&
#212000
1#
0"
0!
10
01
0/
1'
02
05
0&
#213000
1!
1/
0'
#214000
1"
0!
11
0/
1'
#215000
1!
1/
0'
12
15
1&
#216000
1$
0#
0"
0!
13
00
01
0/
1'
02
05
0&
#217000
1!
1/
0'
#218000
1"
0!
11
0/
1'
#219000
1!
1/
0'
12
15
1&
#220000
1#
0"
0!
10
01
0/
1'
14
02
#221000
1!
1/
0'
#222000
1"
0!
11
0/
1'
#223000
1!
1/
0'
12
#224000
0%
0$
0#
0"
0!
0.
03
00
01
0/
1'
04
02
05
0&
#225000
1!
1/
0'
#226000
1"
0!
11
0/
1'
#227000
1!
1/
0'
#228000
1#
0"
0!
10
01
0/
1'
#229000
1!
1/
0'
12
15
1&
#230000
1"
0!
11
0/
1'
02
05
0&
#231000
1!
1/
0'
12
15
1&
#232000
1$
0#
0"
0!
13
00
01
0/
1'
02
05
0&
#233000
1!
1/
0'
#234000
1"
0!
11
0/
1'
14
15
1&
#235000
1!
1/
0'
#236000
1#
0"
0!
10
01
0/
1'
04
05
0&
#237000
1!
1/
0'
12
15
1&
#238000
1"
0!
11
0/
1'
14
02
#239000
1!
1/
0'
12
#240000
1%
0$
0#
0"
0!
1.
03
00
01
0/
1'
04
02
05
0&
#241000
1!
1/
0'
#242000
1"
0!
11
0/
1'
#243000
1!
1/
0'
12
15
1&
#244000
1#
0"
0!
10
01
0/
1'
02
05
0&
#245000
1!
1/
0'
#246000
1"
0!
11
0/
1'
#247000
1!
1/
0'
12
15
1&
#248000
1$
0#
0"
0!
13
00
01
0/
1'
02
05
0&
#249000
1!
1/
0'
#250000
1"
0!
11
0/
1'
#251000
1!
1/
0'
12
15
1&
#252000
1#
0"
0!
10
01
0/
1'
14
02
#253000
1!
1/
0'
#254000
1"
0!
11
0/
1'
#255000
1!
1/
0'
12
#256000
0%
0$
0#
0"
0!
0.
03
00
01
0/
1'
04
02
05
0&
#257000
1!
1/
0'
#258000
1"
0!
11
0/
1'
#259000
1!
1/
0'
#260000
1#
0"
0!
10
01
0/
1'
#261000
1!
1/
0'
12
15
1&
#262000
1"
0!
11
0/
1'
02
05
0&
#263000
1!
1/
0'
12
15
1&
#264000
1$
0#
0"
0!
13
00
01
0/
1'
02
05
0&
#265000
1!
1/
0'
#266000
1"
0!
11
0/
1'
14
15
1&
#267000
1!
1/
0'
#268000
1#
0"
0!
10
01
0/
1'
04
05
0&
#269000
1!
1/
0'
12
15
1&
#270000
1"
0!
11
0/
1'
14
02
#271000
1!
1/
0'
12
#272000
1%
0$
0#
0"
0!
1.
03
00
01
0/
1'
04
02
05
0&
#273000
1!
1/
0'
#274000
1"
0!
11
0/
1'
#275000
1!
1/
0'
12
15
1&
#276000
1#
0"
0!
10
01
0/
1'
02
05
0&
#277000
1!
1/
0'
#278000
1"
0!
11
0/
1'
#279000
1!
1/
0'
12
15
1&
#280000
1$
0#
0"
0!
13
00
01
0/
1'
02
05
0&
#281000
1!
1/
0'
#282000
1"
0!
11
0/
1'
#283000
1!
1/
0'
12
15
1&
#284000
1#
0"
0!
10
01
0/
1'
14
02
#285000
1!
1/
0'
#286000
1"
0!
11
0/
1'
#287000
1!
1/
0'
12
#288000
0%
0$
0#
0"
0!
0.
03
00
01
0/
1'
04
02
05
0&
#289000
1!
1/
0'
#290000
1"
0!
11
0/
1'
#291000
1!
1/
0'
#292000
1#
0"
0!
10
01
0/
1'
#293000
1!
1/
0'
12
15
1&
#294000
1"
0!
11
0/
1'
02
05
0&
#295000
1!
1/
0'
12
15
1&
#296000
1$
0#
0"
0!
13
00
01
0/
1'
02
05
0&
#297000
1!
1/
0'
#298000
1"
0!
11
0/
1'
14
15
1&
#299000
1!
1/
0'
#300000
1#
0"
0!
10
01
0/
1'
04
05
0&
#301000
1!
1/
0'
12
15
1&
#302000
1"
0!
11
0/
1'
14
02
#303000
1!
1/
0'
12
#304000
1%
0$
0#
0"
0!
1.
03
00
01
0/
1'
04
02
05
0&
#305000
1!
1/
0'
#306000
1"
0!
11
0/
1'
#307000
1!
1/
0'
12
15
1&
#308000
1#
0"
0!
10
01
0/
1'
02
05
0&
#309000
1!
1/
0'
#310000
1"
0!
11
0/
1'
#311000
1!
1/
0'
12
15
1&
#312000
1$
0#
0"
0!
13
00
01
0/
1'
02
05
0&
#313000
1!
1/
0'
#314000
1"
0!
11
0/
1'
#315000
1!
1/
0'
12
15
1&
#316000
1#
0"
0!
10
01
0/
1'
14
02
#317000
1!
1/
0'
#318000
1"
0!
11
0/
1'
#319000
1!
1/
0'
12
#320000
0%
0$
0#
0"
0!
0.
03
00
01
0/
1'
04
02
05
0&
#321000
1!
1/
0'
#322000
1"
0!
11
0/
1'
#323000
1!
1/
0'
#324000
1#
0"
0!
10
01
0/
1'
#325000
1!
1/
0'
12
15
1&
#326000
1"
0!
11
0/
1'
02
05
0&
#327000
1!
1/
0'
12
15
1&
#328000
1$
0#
0"
0!
13
00
01
0/
1'
02
05
0&
#329000
1!
1/
0'
#330000
1"
0!
11
0/
1'
14
15
1&
#331000
1!
1/
0'
#332000
1#
0"
0!
10
01
0/
1'
04
05
0&
#333000
1!
1/
0'
12
15
1&
#334000
1"
0!
11
0/
1'
14
02
#335000
1!
1/
0'
12
#336000
1%
0$
0#
0"
0!
1.
03
00
01
0/
1'
04
02
05
0&
#337000
1!
1/
0'
#338000
1"
0!
11
0/
1'
#339000
1!
1/
0'
12
15
1&
#340000
1#
0"
0!
10
01
0/
1'
02
05
0&
#341000
1!
1/
0'
#342000
1"
0!
11
0/
1'
#343000
1!
1/
0'
12
15
1&
#344000
1$
0#
0"
0!
13
00
01
0/
1'
02
05
0&
#345000
1!
1/
0'
#346000
1"
0!
11
0/
1'
#347000
1!
1/
0'
12
15
1&
#348000
1#
0"
0!
10
01
0/
1'
14
02
#349000
1!
1/
0'
#350000
1"
0!
11
0/
1'
#351000
1!
1/
0'
12
#352000
0%
0$
0#
0"
0!
0.
03
00
01
0/
1'
04
02
05
0&
#353000
1!
1/
0'
#354000
1"
0!
11
0/
1'
#355000
1!
1/
0'
#356000
1#
0"
0!
10
01
0/
1'
#357000
1!
1/
0'
12
15
1&
#358000
1"
0!
11
0/
1'
02
05
0&
#359000
1!
1/
0'
12
15
1&
#360000
1$
0#
0"
0!
13
00
01
0/
1'
02
05
0&
#361000
1!
1/
0'
#362000
1"
0!
11
0/
1'
14
15
1&
#363000
1!
1/
0'
#364000
1#
0"
0!
10
01
0/
1'
04
05
0&
#365000
1!
1/
0'
12
15
1&
#366000
1"
0!
11
0/
1'
14
02
#367000
1!
1/
0'
12
#368000
1%
0$
0#
0"
0!
1.
03
00
01
0/
1'
04
02
05
0&
#369000
1!
1/
0'
#370000
1"
0!
11
0/
1'
#371000
1!
1/
0'
12
15
1&
#372000
1#
0"
0!
10
01
0/
1'
02
05
0&
#373000
1!
1/
0'
#374000
1"
0!
11
0/
1'
#375000
1!
1/
0'
12
15
1&
#376000
1$
0#
0"
0!
13
00
01
0/
1'
02
05
0&
#377000
1!
1/
0'
#378000
1"
0!
11
0/
1'
#379000
1!
1/
0'
12
15
1&
#380000
1#
0"
0!
10
01
0/
1'
14
02
#381000
1!
1/
0'
#382000
1"
0!
11
0/
1'
#383000
1!
1/
0'
12
#384000
0%
0$
0#
0"
0!
0.
03
00
01
0/
1'
04
02
05
0&
#385000
1!
1/
0'
#386000
1"
0!
11
0/
1'
#387000
1!
1/
0'
#388000
1#
0"
0!
10
01
0/
1'
#389000
1!
1/
0'
12
15
1&
#390000
1"
0!
11
0/
1'
02
05
0&
#391000
1!
1/
0'
12
15
1&
#392000
1$
0#
0"
0!
13
00
01
0/
1'
02
05
0&
#393000
1!
1/
0'
#394000
1"
0!
11
0/
1'
14
15
1&
#395000
1!
1/
0'
#396000
1#
0"
0!
10
01
0/
1'
04
05
0&
#397000
1!
1/
0'
12
15
1&
#398000
1"
0!
11
0/
1'
14
02
#399000
1!
1/
0'
12
#400000
1%
0$
0#
0"
0!
1.
03
00
01
0/
1'
04
02
05
0&
#401000
1!
1/
0'
#402000
1"
0!
11
0/
1'
#403000
1!
1/
0'
12
15
1&
#404000
1#
0"
0!
10
01
0/
1'
02
05
0&
#405000
1!
1/
0'
#406000
1"
0!
11
0/
1'
#407000
1!
1/
0'
12
15
1&
#408000
1$
0#
0"
0!
13
00
01
0/
1'
02
05
0&
#409000
1!
1/
0'
#410000
1"
0!
11
0/
1'
#411000
1!
1/
0'
12
15
1&
#412000
1#
0"
0!
10
01
0/
1'
14
02
#413000
1!
1/
0'
#414000
1"
0!
11
0/
1'
#415000
1!
1/
0'
12
#416000
0%
0$
0#
0"
0!
0.
03
00
01
0/
1'
04
02
05
0&
#417000
1!
1/
0'
#418000
1"
0!
11
0/
1'
#419000
1!
1/
0'
#420000
1#
0"
0!
10
01
0/
1'
#421000
1!
1/
0'
12
15
1&
#422000
1"
0!
11
0/
1'
02
05
0&
#423000
1!
1/
0'
12
15
1&
#424000
1$
0#
0"
0!
13
00
01
0/
1'
02
05
0&
#425000
1!
1/
0'
#426000
1"
0!
11
0/
1'
14
15
1&
#427000
1!
1/
0'
#428000
1#
0"
0!
10
01
0/
1'
04
05
0&
#429000
1!
1/
0'
12
15
1&
#430000
1"
0!
11
0/
1'
14
02
#431000
1!
1/
0'
12
#432000
1%
0$
0#
0"
0!
1.
03
00
01
0/
1'
04
02
05
0&
#433000
1!
1/
0'
#434000
1"
0!
11
0/
1'
#435000
1!
1/
0'
12
15
1&
#436000
1#
0"
0!
10
01
0/
1'
02
05
0&
#437000
1!
1/
0'
#438000
1"
0!
11
0/
1'
#439000
1!
1/
0'
12
15
1&
#440000
1$
0#
0"
0!
13
00
01
0/
1'
02
05
0&
#441000
1!
1/
0'
#442000
1"
0!
11
0/
1'
#443000
1!
1/
0'
12
15
1&
#444000
1#
0"
0!
10
01
0/
1'
14
02
#445000
1!
1/
0'
#446000
1"
0!
11
0/
1'
#447000
1!
1/
0'
12
#448000
0%
0$
0#
0"
0!
0.
03
00
01
0/
1'
04
02
05
0&
#449000
1!
1/
0'
#450000
1"
0!
11
0/
1'
#451000
1!
1/
0'
#452000
1#
0"
0!
10
01
0/
1'
#453000
1!
1/
0'
12
15
1&
#454000
1"
0!
11
0/
1'
02
05
0&
#455000
1!
1/
0'
12
15
1&
#456000
1$
0#
0"
0!
13
00
01
0/
1'
02
05
0&
#457000
1!
1/
0'
#458000
1"
0!
11
0/
1'
14
15
1&
#459000
1!
1/
0'
#460000
1#
0"
0!
10
01
0/
1'
04
05
0&
#461000
1!
1/
0'
12
15
1&
#462000
1"
0!
11
0/
1'
14
02
#463000
1!
1/
0'
12
#464000
1%
0$
0#
0"
0!
1.
03
00
01
0/
1'
04
02
05
0&
#465000
1!
1/
0'
#466000
1"
0!
11
0/
1'
#467000
1!
1/
0'
12
15
1&
#468000
1#
0"
0!
10
01
0/
1'
02
05
0&
#469000
1!
1/
0'
#470000
1"
0!
11
0/
1'
#471000
1!
1/
0'
12
15
1&
#472000
1$
0#
0"
0!
13
00
01
0/
1'
02
05
0&
#473000
1!
1/
0'
#474000
1"
0!
11
0/
1'
#475000
1!
1/
0'
12
15
1&
#476000
1#
0"
0!
10
01
0/
1'
14
02
#477000
1!
1/
0'
#478000
1"
0!
11
0/
1'
#479000
1!
1/
0'
12
#480000
0%
0$
0#
0"
0!
0.
03
00
01
0/
1'
04
02
05
0&
#481000
1!
1/
0'
#482000
1"
0!
11
0/
1'
#483000
1!
1/
0'
#484000
1#
0"
0!
10
01
0/
1'
#485000
1!
1/
0'
12
15
1&
#486000
1"
0!
11
0/
1'
02
05
0&
#487000
1!
1/
0'
12
15
1&
#488000
1$
0#
0"
0!
13
00
01
0/
1'
02
05
0&
#489000
1!
1/
0'
#490000
1"
0!
11
0/
1'
14
15
1&
#491000
1!
1/
0'
#492000
1#
0"
0!
10
01
0/
1'
04
05
0&
#493000
1!
1/
0'
12
15
1&
#494000
1"
0!
11
0/
1'
14
02
#495000
1!
1/
0'
12
#496000
1%
0$
0#
0"
0!
1.
03
00
01
0/
1'
04
02
05
0&
#497000
1!
1/
0'
#498000
1"
0!
11
0/
1'
#499000
1!
1/
0'
12
15
1&
#500000
1#
0"
0!
10
01
0/
1'
02
05
0&
#501000
1!
1/
0'
#502000
1"
0!
11
0/
1'
#503000
1!
1/
0'
12
15
1&
#504000
1$
0#
0"
0!
13
00
01
0/
1'
02
05
0&
#505000
1!
1/
0'
#506000
1"
0!
11
0/
1'
#507000
1!
1/
0'
12
15
1&
#508000
1#
0"
0!
10
01
0/
1'
14
02
#509000
1!
1/
0'
#510000
1"
0!
11
0/
1'
#511000
1!
1/
0'
12
#512000
0%
0$
0#
0"
0!
0.
03
00
01
0/
1'
04
02
05
0&
#513000
1!
1/
0'
#514000
1"
0!
11
0/
1'
#515000
1!
1/
0'
#516000
1#
0"
0!
10
01
0/
1'
#517000
1!
1/
0'
12
15
1&
#518000
1"
0!
11
0/
1'
02
05
0&
#519000
1!
1/
0'
12
15
1&
#520000
1$
0#
0"
0!
13
00
01
0/
1'
02
05
0&
#521000
1!
1/
0'
#522000
1"
0!
11
0/
1'
14
15
1&
#523000
1!
1/
0'
#524000
1#
0"
0!
10
01
0/
1'
04
05
0&
#525000
1!
1/
0'
12
15
1&
#526000
1"
0!
11
0/
1'
14
02
#527000
1!
1/
0'
12
#528000
1%
0$
0#
0"
0!
1.
03
00
01
0/
1'
04
02
05
0&
#529000
1!
1/
0'
#530000
1"
0!
11
0/
1'
#531000
1!
1/
0'
12
15
1&
#532000
1#
0"
0!
10
01
0/
1'
02
05
0&
#533000
1!
1/
0'
#534000
1"
0!
11
0/
1'
#535000
1!
1/
0'
12
15
1&
#536000
1$
0#
0"
0!
13
00
01
0/
1'
02
05
0&
#537000
1!
1/
0'
#538000
1"
0!
11
0/
1'
#539000
1!
1/
0'
12
15
1&
#540000
1#
0"
0!
10
01
0/
1'
14
02
#541000
1!
1/
0'
#542000
1"
0!
11
0/
1'
#543000
1!
1/
0'
12
#544000
0%
0$
0#
0"
0!
0.
03
00
01
0/
1'
04
02
05
0&
#545000
1!
1/
0'
#546000
1"
0!
11
0/
1'
#547000
1!
1/
0'
#548000
1#
0"
0!
10
01
0/
1'
#549000
1!
1/
0'
12
15
1&
#550000
1"
0!
11
0/
1'
02
05
0&
#551000
1!
1/
0'
12
15
1&
#552000
1$
0#
0"
0!
13
00
01
0/
1'
02
05
0&
#553000
1!
1/
0'
#554000
1"
0!
11
0/
1'
14
15
1&
#555000
1!
1/
0'
#556000
1#
0"
0!
10
01
0/
1'
04
05
0&
#557000
1!
1/
0'
12
15
1&
#558000
1"
0!
11
0/
1'
14
02
#559000
1!
1/
0'
12
#560000
1%
0$
0#
0"
0!
1.
03
00
01
0/
1'
04
02
05
0&
#561000
1!
1/
0'
#562000
1"
0!
11
0/
1'
#563000
1!
1/
0'
12
15
1&
#564000
1#
0"
0!
10
01
0/
1'
02
05
0&
#565000
1!
1/
0'
#566000
1"
0!
11
0/
1'
#567000
1!
1/
0'
12
15
1&
#568000
1$
0#
0"
0!
13
00
01
0/
1'
02
05
0&
#569000
1!
1/
0'
#570000
1"
0!
11
0/
1'
#571000
1!
1/
0'
12
15
1&
#572000
1#
0"
0!
10
01
0/
1'
14
02
#573000
1!
1/
0'
#574000
1"
0!
11
0/
1'
#575000
1!
1/
0'
12
#576000
0%
0$
0#
0"
0!
0.
03
00
01
0/
1'
04
02
05
0&
#577000
1!
1/
0'
#578000
1"
0!
11
0/
1'
#579000
1!
1/
0'
#580000
1#
0"
0!
10
01
0/
1'
#581000
1!
1/
0'
12
15
1&
#582000
1"
0!
11
0/
1'
02
05
0&
#583000
1!
1/
0'
12
15
1&
#584000
1$
0#
0"
0!
13
00
01
0/
1'
02
05
0&
#585000
1!
1/
0'
#586000
1"
0!
11
0/
1'
14
15
1&
#587000
1!
1/
0'
#588000
1#
0"
0!
10
01
0/
1'
04
05
0&
#589000
1!
1/
0'
12
15
1&
#590000
1"
0!
11
0/
1'
14
02
#591000
1!
1/
0'
12
#592000
1%
0$
0#
0"
0!
1.
03
00
01
0/
1'
04
02
05
0&
#593000
1!
1/
0'
#594000
1"
0!
11
0/
1'
#595000
1!
1/
0'
12
15
1&
#596000
1#
0"
0!
10
01
0/
1'
02
05
0&
#597000
1!
1/
0'
#598000
1"
0!
11
0/
1'
#599000
1!
1/
0'
12
15
1&
#600000
1$
0#
0"
0!
13
00
01
0/
1'
02
05
0&
#601000
1!
1/
0'
#602000
1"
0!
11
0/
1'
#603000
1!
1/
0'
12
15
1&
#604000
1#
0"
0!
10
01
0/
1'
14
02
#605000
1!
1/
0'
#606000
1"
0!
11
0/
1'
#607000
1!
1/
0'
12
#608000
0%
0$
0#
0"
0!
0.
03
00
01
0/
1'
04
02
05
0&
#609000
1!
1/
0'
#610000
1"
0!
11
0/
1'
#611000
1!
1/
0'
#612000
1#
0"
0!
10
01
0/
1'
#613000
1!
1/
0'
12
15
1&
#614000
1"
0!
11
0/
1'
02
05
0&
#615000
1!
1/
0'
12
15
1&
#616000
1$
0#
0"
0!
13
00
01
0/
1'
02
05
0&
#617000
1!
1/
0'
#618000
1"
0!
11
0/
1'
14
15
1&
#619000
1!
1/
0'
#620000
1#
0"
0!
10
01
0/
1'
04
05
0&
#621000
1!
1/
0'
12
15
1&
#622000
1"
0!
11
0/
1'
14
02
#623000
1!
1/
0'
12
#624000
1%
0$
0#
0"
0!
1.
03
00
01
0/
1'
04
02
05
0&
#625000
1!
1/
0'
#626000
1"
0!
11
0/
1'
#627000
1!
1/
0'
12
15
1&
#628000
1#
0"
0!
10
01
0/
1'
02
05
0&
#629000
1!
1/
0'
#630000
1"
0!
11
0/
1'
#631000
1!
1/
0'
12
15
1&
#632000
1$
0#
0"
0!
13
00
01
0/
1'
02
05
0&
#633000
1!
1/
0'
#634000
1"
0!
11
0/
1'
#635000
1!
1/
0'
12
15
1&
#636000
1#
0"
0!
10
01
0/
1'
14
02
#637000
1!
1/
0'
#638000
1"
0!
11
0/
1'
#639000
1!
1/
0'
12
#640000
0%
0$
0#
0"
0!
0.
03
00
01
0/
1'
04
02
05
0&
#641000
1!
1/
0'
#642000
1"
0!
11
0/
1'
#643000
1!
1/
0'
#644000
1#
0"
0!
10
01
0/
1'
#645000
1!
1/
0'
12
15
1&
#646000
1"
0!
11
0/
1'
02
05
0&
#647000
1!
1/
0'
12
15
1&
#648000
1$
0#
0"
0!
13
00
01
0/
1'
02
05
0&
#649000
1!
1/
0'
#650000
1"
0!
11
0/
1'
14
15
1&
#651000
1!
1/
0'
#652000
1#
0"
0!
10
01
0/
1'
04
05
0&
#653000
1!
1/
0'
12
15
1&
#654000
1"
0!
11
0/
1'
14
02
#655000
1!
1/
0'
12
#656000
1%
0$
0#
0"
0!
1.
03
00
01
0/
1'
04
02
05
0&
#657000
1!
1/
0'
#658000
1"
0!
11
0/
1'
#659000
1!
1/
0'
12
15
1&
#660000
1#
0"
0!
10
01
0/
1'
02
05
0&
#661000
1!
1/
0'
#662000
1"
0!
11
0/
1'
#663000
1!
1/
0'
12
15
1&
#664000
1$
0#
0"
0!
13
00
01
0/
1'
02
05
0&
#665000
1!
1/
0'
#666000
1"
0!
11
0/
1'
#667000
1!
1/
0'
12
15
1&
#668000
1#
0"
0!
10
01
0/
1'
14
02
#669000
1!
1/
0'
#670000
1"
0!
11
0/
1'
#671000
1!
1/
0'
12
#672000
0%
0$
0#
0"
0!
0.
03
00
01
0/
1'
04
02
05
0&
#673000
1!
1/
0'
#674000
1"
0!
11
0/
1'
#675000
1!
1/
0'
#676000
1#
0"
0!
10
01
0/
1'
#677000
1!
1/
0'
12
15
1&
